{
  "database": {
    "rules": "database.rules.json"
  },
  "functions": {
    "predeploy": [
      "npm --prefix \"functions\" run lint",
      "npm --prefix \"functions\" run build"
    ],
    "source": "functions"
  },
  "hosting": {
    "public": "public",
    "ignore": [
      "firebase.json",
      "**/.*",
      "**/node_modules/**"
    ],
	"rewrites": [ {
     "source": "/user/**",
     "function": "userProfile?uid=**"
   } ]
  },
  "storage": {
    "rules": "storage.rules"
  }
}
